;;SKT0;SKT0;SKT0;SKT0;SKT0;SKT0;SKT0;SKT0;SKT0;SKT0;SKT0;SKT0;System;System;System
Date;Time;Ch0Read;Ch0Write;Ch1Read;Ch1Write;Ch2Read;Ch2Write;Ch3Read;Ch3Write;Mem Read (MB/s);Mem Write (MB/s); P. Write (T/s); Memory (MB/s);Read;Write;Memory
2017-12-10;21:47:7;   57.42;   68.81;   57.39;   68.79;   57.42;   68.77;   57.26;   68.84;  229.49;  275.21;    358833;  504.70;    229.49;    275.21;    504.70
