==36884== NVPROF is profiling process 36884, command: /home/ckh916/HPC/hpc-visualizer_yoon/projects//pathfinder.cu.out
==36884== Some kernel(s) will be replayed on device 0 in order to collect all events/metrics.
==36884== Profiling application: /home/ckh916/HPC/hpc-visualizer_yoon/projects//pathfinder.cu.out
==36884== Profiling result:
==36884== Event result:
"Device","Kernel","Invocations","Event Name","Min","Max","Avg","Total"
"GeForce GTX 1080 (0)","dynproc_kernel(int, int*, int*, int*, int, int, int, int)",1,"tex0_cache_sector_queries",16214,16214,16214,16214
"GeForce GTX 1080 (0)","dynproc_kernel(int, int*, int*, int*, int, int, int, int)",1,"tex1_cache_sector_queries",16137,16137,16137,16137
"GeForce GTX 1080 (0)","dynproc_kernel(int, int*, int*, int*, int, int, int, int)",1,"tex0_cache_sector_misses",9282,9282,9282,9282
"GeForce GTX 1080 (0)","dynproc_kernel(int, int*, int*, int*, int, int, int, int)",1,"tex1_cache_sector_misses",9155,9155,9155,9155
"GeForce GTX 1080 (0)","dynproc_kernel(int, int*, int*, int*, int, int, int, int)",1,"fb_subp0_read_sectors",6274,6274,6274,6274
"GeForce GTX 1080 (0)","dynproc_kernel(int, int*, int*, int*, int, int, int, int)",1,"fb_subp1_read_sectors",6309,6309,6309,6309
"GeForce GTX 1080 (0)","dynproc_kernel(int, int*, int*, int*, int, int, int, int)",1,"fb_subp0_write_sectors",0,0,0,0
"GeForce GTX 1080 (0)","dynproc_kernel(int, int*, int*, int*, int, int, int, int)",1,"fb_subp1_write_sectors",0,0,0,0
"GeForce GTX 1080 (0)","dynproc_kernel(int, int*, int*, int*, int, int, int, int)",1,"l2_subp0_write_sector_misses",0,0,0,0
"GeForce GTX 1080 (0)","dynproc_kernel(int, int*, int*, int*, int, int, int, int)",1,"l2_subp1_write_sector_misses",0,0,0,0
"GeForce GTX 1080 (0)","dynproc_kernel(int, int*, int*, int*, int, int, int, int)",1,"l2_subp0_read_sector_misses",6293,6293,6293,6293
"GeForce GTX 1080 (0)","dynproc_kernel(int, int*, int*, int*, int, int, int, int)",1,"l2_subp1_read_sector_misses",6290,6290,6290,6290
"GeForce GTX 1080 (0)","dynproc_kernel(int, int*, int*, int*, int, int, int, int)",1,"l2_subp0_read_tex_sector_queries",7782,7782,7782,7782
"GeForce GTX 1080 (0)","dynproc_kernel(int, int*, int*, int*, int, int, int, int)",1,"l2_subp1_read_tex_sector_queries",7798,7798,7798,7798
"GeForce GTX 1080 (0)","dynproc_kernel(int, int*, int*, int*, int, int, int, int)",1,"l2_subp0_write_tex_sector_queries",759,759,759,759
"GeForce GTX 1080 (0)","dynproc_kernel(int, int*, int*, int*, int, int, int, int)",1,"l2_subp1_write_tex_sector_queries",757,757,757,757
"GeForce GTX 1080 (0)","dynproc_kernel(int, int*, int*, int*, int, int, int, int)",1,"l2_subp0_read_tex_hit_sectors",1532,1532,1532,1532
"GeForce GTX 1080 (0)","dynproc_kernel(int, int*, int*, int*, int, int, int, int)",1,"l2_subp1_read_tex_hit_sectors",1548,1548,1548,1548
"GeForce GTX 1080 (0)","dynproc_kernel(int, int*, int*, int*, int, int, int, int)",1,"l2_subp0_write_tex_hit_sectors",353,353,353,353
"GeForce GTX 1080 (0)","dynproc_kernel(int, int*, int*, int*, int, int, int, int)",1,"l2_subp1_write_tex_hit_sectors",333,333,333,333
"GeForce GTX 1080 (0)","dynproc_kernel(int, int*, int*, int*, int, int, int, int)",1,"l2_subp0_total_read_sector_queries",7853,7853,7853,7853
"GeForce GTX 1080 (0)","dynproc_kernel(int, int*, int*, int*, int, int, int, int)",1,"l2_subp1_total_read_sector_queries",7866,7866,7866,7866
"GeForce GTX 1080 (0)","dynproc_kernel(int, int*, int*, int*, int, int, int, int)",1,"l2_subp0_total_write_sector_queries",771,771,771,771
"GeForce GTX 1080 (0)","dynproc_kernel(int, int*, int*, int*, int, int, int, int)",1,"l2_subp1_total_write_sector_queries",758,758,758,758
"GeForce GTX 1080 (0)","dynproc_kernel(int, int*, int*, int*, int, int, int, int)",1,"l2_subp0_read_sysmem_sector_queries",0,0,0,0
"GeForce GTX 1080 (0)","dynproc_kernel(int, int*, int*, int*, int, int, int, int)",1,"l2_subp1_read_sysmem_sector_queries",0,0,0,0
"GeForce GTX 1080 (0)","dynproc_kernel(int, int*, int*, int*, int, int, int, int)",1,"l2_subp0_write_sysmem_sector_queries",0,0,0,0
"GeForce GTX 1080 (0)","dynproc_kernel(int, int*, int*, int*, int, int, int, int)",1,"l2_subp1_write_sysmem_sector_queries",5,5,5,5
"GeForce GTX 1080 (0)","dynproc_kernel(int, int*, int*, int*, int, int, int, int)",1,"elapsed_cycles_sm",326885,326885,326885,326885
"GeForce GTX 1080 (0)","dynproc_kernel(int, int*, int*, int*, int, int, int, int)",1,"gld_inst_8bit",0,0,0,0
"GeForce GTX 1080 (0)","dynproc_kernel(int, int*, int*, int*, int, int, int, int)",1,"gld_inst_16bit",0,0,0,0
"GeForce GTX 1080 (0)","dynproc_kernel(int, int*, int*, int*, int, int, int, int)",1,"gld_inst_32bit",103780,103780,103780,103780
"GeForce GTX 1080 (0)","dynproc_kernel(int, int*, int*, int*, int, int, int, int)",1,"gld_inst_64bit",0,0,0,0
"GeForce GTX 1080 (0)","dynproc_kernel(int, int*, int*, int*, int, int, int, int)",1,"gld_inst_128bit",0,0,0,0
"GeForce GTX 1080 (0)","dynproc_kernel(int, int*, int*, int*, int, int, int, int)",1,"gst_inst_8bit",0,0,0,0
"GeForce GTX 1080 (0)","dynproc_kernel(int, int*, int*, int*, int, int, int, int)",1,"gst_inst_16bit",0,0,0,0
"GeForce GTX 1080 (0)","dynproc_kernel(int, int*, int*, int*, int, int, int, int)",1,"gst_inst_32bit",10000,10000,10000,10000
"GeForce GTX 1080 (0)","dynproc_kernel(int, int*, int*, int*, int, int, int, int)",1,"gst_inst_64bit",0,0,0,0
"GeForce GTX 1080 (0)","dynproc_kernel(int, int*, int*, int*, int, int, int, int)",1,"gst_inst_128bit",0,0,0,0
"GeForce GTX 1080 (0)","dynproc_kernel(int, int*, int*, int*, int, int, int, int)",1,"prof_trigger_00",0,0,0,0
"GeForce GTX 1080 (0)","dynproc_kernel(int, int*, int*, int*, int, int, int, int)",1,"prof_trigger_01",0,0,0,0
"GeForce GTX 1080 (0)","dynproc_kernel(int, int*, int*, int*, int, int, int, int)",1,"prof_trigger_02",0,0,0,0
"GeForce GTX 1080 (0)","dynproc_kernel(int, int*, int*, int*, int, int, int, int)",1,"prof_trigger_03",0,0,0,0
"GeForce GTX 1080 (0)","dynproc_kernel(int, int*, int*, int*, int, int, int, int)",1,"prof_trigger_04",0,0,0,0
"GeForce GTX 1080 (0)","dynproc_kernel(int, int*, int*, int*, int, int, int, int)",1,"prof_trigger_05",0,0,0,0
"GeForce GTX 1080 (0)","dynproc_kernel(int, int*, int*, int*, int, int, int, int)",1,"prof_trigger_06",0,0,0,0
"GeForce GTX 1080 (0)","dynproc_kernel(int, int*, int*, int*, int, int, int, int)",1,"prof_trigger_07",0,0,0,0
"GeForce GTX 1080 (0)","dynproc_kernel(int, int*, int*, int*, int, int, int, int)",1,"warps_launched",376,376,376,376
"GeForce GTX 1080 (0)","dynproc_kernel(int, int*, int*, int*, int, int, int, int)",1,"inst_issued0",555828,555828,555828,555828
"GeForce GTX 1080 (0)","dynproc_kernel(int, int*, int*, int*, int, int, int, int)",1,"inst_issued1",104090,104090,104090,104090
"GeForce GTX 1080 (0)","dynproc_kernel(int, int*, int*, int*, int, int, int, int)",1,"inst_issued2",21493,21493,21493,21493
"GeForce GTX 1080 (0)","dynproc_kernel(int, int*, int*, int*, int, int, int, int)",1,"inst_executed",145196,145196,145196,145196
"GeForce GTX 1080 (0)","dynproc_kernel(int, int*, int*, int*, int, int, int, int)",1,"thread_inst_executed",4568992,4568992,4568992,4568992
"GeForce GTX 1080 (0)","dynproc_kernel(int, int*, int*, int*, int, int, int, int)",1,"not_predicated_off_thread_inst_executed",4319072,4319072,4319072,4319072
"GeForce GTX 1080 (0)","dynproc_kernel(int, int*, int*, int*, int, int, int, int)",1,"active_cycles",178374,178374,178374,178374
"GeForce GTX 1080 (0)","dynproc_kernel(int, int*, int*, int*, int, int, int, int)",1,"active_warps",3150008,3150008,3150008,3150008
"GeForce GTX 1080 (0)","dynproc_kernel(int, int*, int*, int*, int, int, int, int)",1,"global_load",3370,3370,3370,3370
"GeForce GTX 1080 (0)","dynproc_kernel(int, int*, int*, int*, int, int, int, int)",1,"global_store",337,337,337,337
"GeForce GTX 1080 (0)","dynproc_kernel(int, int*, int*, int*, int, int, int, int)",1,"generic_load",0,0,0,0
"GeForce GTX 1080 (0)","dynproc_kernel(int, int*, int*, int*, int, int, int, int)",1,"generic_store",0,0,0,0
"GeForce GTX 1080 (0)","dynproc_kernel(int, int*, int*, int*, int, int, int, int)",1,"inst_executed_in_trap",0,0,0,0
"GeForce GTX 1080 (0)","dynproc_kernel(int, int*, int*, int*, int, int, int, int)",1,"active_cycles_in_trap",0,0,0,0
"GeForce GTX 1080 (0)","dynproc_kernel(int, int*, int*, int*, int, int, int, int)",1,"local_store",0,0,0,0
"GeForce GTX 1080 (0)","dynproc_kernel(int, int*, int*, int*, int, int, int, int)",1,"local_load",0,0,0,0
"GeForce GTX 1080 (0)","dynproc_kernel(int, int*, int*, int*, int, int, int, int)",1,"shared_load",12444,12444,12444,12444
"GeForce GTX 1080 (0)","dynproc_kernel(int, int*, int*, int*, int, int, int, int)",1,"shared_store",6417,6417,6417,6417
"GeForce GTX 1080 (0)","dynproc_kernel(int, int*, int*, int*, int, int, int, int)",1,"inst_executed_shared_atom_cas",0,0,0,0
"GeForce GTX 1080 (0)","dynproc_kernel(int, int*, int*, int*, int, int, int, int)",1,"shared_atom",0,0,0,0
"GeForce GTX 1080 (0)","dynproc_kernel(int, int*, int*, int*, int, int, int, int)",1,"global_atom_cas",0,0,0,0
"GeForce GTX 1080 (0)","dynproc_kernel(int, int*, int*, int*, int, int, int, int)",1,"atom_count",0,0,0,0
"GeForce GTX 1080 (0)","dynproc_kernel(int, int*, int*, int*, int, int, int, int)",1,"gred_count",0,0,0,0
"GeForce GTX 1080 (0)","dynproc_kernel(int, int*, int*, int*, int, int, int, int)",1,"divergent_branch",0,0,0,0
"GeForce GTX 1080 (0)","dynproc_kernel(int, int*, int*, int*, int, int, int, int)",1,"branch",14274,14274,14274,14274
"GeForce GTX 1080 (0)","dynproc_kernel(int, int*, int*, int*, int, int, int, int)",1,"shared_ld_bank_conflict",0,0,0,0
"GeForce GTX 1080 (0)","dynproc_kernel(int, int*, int*, int*, int, int, int, int)",1,"shared_st_bank_conflict",0,0,0,0
"GeForce GTX 1080 (0)","dynproc_kernel(int, int*, int*, int*, int, int, int, int)",1,"shared_ld_transactions",12132,12132,12132,12132
"GeForce GTX 1080 (0)","dynproc_kernel(int, int*, int*, int*, int, int, int, int)",1,"shared_st_transactions",6066,6066,6066,6066

==36884== Metric result:
"Device","Kernel","Invocations","Metric Name","Metric Description","Min","Max","Avg"
"GeForce GTX 1080 (0)","dynproc_kernel(int, int*, int*, int*, int, int, int, int)",1,"inst_per_warp","Instructions per warp",386.159574,386.159574,386.159574
"GeForce GTX 1080 (0)","dynproc_kernel(int, int*, int*, int*, int, int, int, int)",1,"branch_efficiency","Branch Efficiency",100.000000%,100.000000%,100.000000%
"GeForce GTX 1080 (0)","dynproc_kernel(int, int*, int*, int*, int, int, int, int)",1,"warp_execution_efficiency","Warp Execution Efficiency",98.336731%,98.336731%,98.336731%
"GeForce GTX 1080 (0)","dynproc_kernel(int, int*, int*, int*, int, int, int, int)",1,"warp_nonpred_execution_efficiency","Warp Non-Predicated Execution Efficiency",92.957795%,92.957795%,92.957795%
"GeForce GTX 1080 (0)","dynproc_kernel(int, int*, int*, int*, int, int, int, int)",1,"inst_replay_overhead","Instruction Replay Overhead",0.012948,0.012948,0.012948
"GeForce GTX 1080 (0)","dynproc_kernel(int, int*, int*, int*, int, int, int, int)",1,"shared_load_transactions_per_request","Shared Memory Load Transactions Per Request",0.974928,0.974928,0.974928
"GeForce GTX 1080 (0)","dynproc_kernel(int, int*, int*, int*, int, int, int, int)",1,"shared_store_transactions_per_request","Shared Memory Store Transactions Per Request",0.945302,0.945302,0.945302
"GeForce GTX 1080 (0)","dynproc_kernel(int, int*, int*, int*, int, int, int, int)",1,"local_load_transactions_per_request","Local Memory Load Transactions Per Request",0.000000,0.000000,0.000000
"GeForce GTX 1080 (0)","dynproc_kernel(int, int*, int*, int*, int, int, int, int)",1,"local_store_transactions_per_request","Local Memory Store Transactions Per Request",0.000000,0.000000,0.000000
"GeForce GTX 1080 (0)","dynproc_kernel(int, int*, int*, int*, int, int, int, int)",1,"gld_transactions_per_request","Global Load Transactions Per Request",8.751929,8.751929,8.751929
"GeForce GTX 1080 (0)","dynproc_kernel(int, int*, int*, int*, int, int, int, int)",1,"gst_transactions_per_request","Global Store Transactions Per Request",4.498516,4.498516,4.498516
"GeForce GTX 1080 (0)","dynproc_kernel(int, int*, int*, int*, int, int, int, int)",1,"shared_store_transactions","Shared Store Transactions",6066,6066,6066
"GeForce GTX 1080 (0)","dynproc_kernel(int, int*, int*, int*, int, int, int, int)",1,"shared_load_transactions","Shared Load Transactions",12132,12132,12132
"GeForce GTX 1080 (0)","dynproc_kernel(int, int*, int*, int*, int, int, int, int)",1,"local_load_transactions","Local Load Transactions",0,0,0
"GeForce GTX 1080 (0)","dynproc_kernel(int, int*, int*, int*, int, int, int, int)",1,"local_store_transactions","Local Store Transactions",0,0,0
"GeForce GTX 1080 (0)","dynproc_kernel(int, int*, int*, int*, int, int, int, int)",1,"gld_transactions","Global Load Transactions",29494,29494,29494
"GeForce GTX 1080 (0)","dynproc_kernel(int, int*, int*, int*, int, int, int, int)",1,"gst_transactions","Global Store Transactions",1516,1516,1516
"GeForce GTX 1080 (0)","dynproc_kernel(int, int*, int*, int*, int, int, int, int)",1,"sysmem_read_transactions","System Memory Read Transactions",0,0,0
"GeForce GTX 1080 (0)","dynproc_kernel(int, int*, int*, int*, int, int, int, int)",1,"sysmem_write_transactions","System Memory Write Transactions",5,5,5
"GeForce GTX 1080 (0)","dynproc_kernel(int, int*, int*, int*, int, int, int, int)",1,"l2_read_transactions","L2 Read Transactions",15719,15719,15719
"GeForce GTX 1080 (0)","dynproc_kernel(int, int*, int*, int*, int, int, int, int)",1,"l2_write_transactions","L2 Write Transactions",1529,1529,1529
"GeForce GTX 1080 (0)","dynproc_kernel(int, int*, int*, int*, int, int, int, int)",1,"global_hit_rate","Global Hit Rate",47.175697%,47.175697%,47.175697%
"GeForce GTX 1080 (0)","dynproc_kernel(int, int*, int*, int*, int, int, int, int)",1,"local_hit_rate","Local Hit Rate",0.000000%,0.000000%,0.000000%
"GeForce GTX 1080 (0)","dynproc_kernel(int, int*, int*, int*, int, int, int, int)",1,"gld_requested_throughput","Requested Global Load Throughput",74.462756GB/s,74.462756GB/s,74.462034GB/s
"GeForce GTX 1080 (0)","dynproc_kernel(int, int*, int*, int*, int, int, int, int)",1,"gst_requested_throughput","Requested Global Store Throughput",7.175058GB/s,7.175058GB/s,7.174909GB/s
"GeForce GTX 1080 (0)","dynproc_kernel(int, int*, int*, int*, int, int, int, int)",1,"gld_throughput","Global Load Throughput",89.429927GB/s,89.429927GB/s,89.429319GB/s
"GeForce GTX 1080 (0)","dynproc_kernel(int, int*, int*, int*, int, int, int, int)",1,"gst_throughput","Global Store Throughput",8.701911GB/s,8.701911GB/s,8.701347GB/s
"GeForce GTX 1080 (0)","dynproc_kernel(int, int*, int*, int*, int, int, int, int)",1,"local_memory_overhead","Local Memory Overhead",0.000000%,0.000000%,0.000000%
"GeForce GTX 1080 (0)","dynproc_kernel(int, int*, int*, int*, int, int, int, int)",1,"tex_cache_hit_rate","Unified Cache Hit Rate",47.154647%,47.154647%,47.154647%
"GeForce GTX 1080 (0)","dynproc_kernel(int, int*, int*, int*, int, int, int, int)",1,"l2_tex_read_hit_rate","L2 Hit Rate (Texture Reads)",19.768935%,19.768935%,19.768935%
"GeForce GTX 1080 (0)","dynproc_kernel(int, int*, int*, int*, int, int, int, int)",1,"l2_tex_write_hit_rate","L2 Hit Rate (Texture Writes)",45.250660%,45.250660%,45.250660%
"GeForce GTX 1080 (0)","dynproc_kernel(int, int*, int*, int*, int, int, int, int)",1,"tex_cache_throughput","Unified Cache Throughput",77.261028GB/s,77.261028GB/s,77.260658GB/s
"GeForce GTX 1080 (0)","dynproc_kernel(int, int*, int*, int*, int, int, int, int)",1,"l2_tex_read_throughput","L2 Throughput (Texture Reads)",89.429927GB/s,89.429927GB/s,89.429319GB/s
"GeForce GTX 1080 (0)","dynproc_kernel(int, int*, int*, int*, int, int, int, int)",1,"l2_tex_write_throughput","L2 Throughput (Texture Writes)",8.701911GB/s,8.701911GB/s,8.701347GB/s
"GeForce GTX 1080 (0)","dynproc_kernel(int, int*, int*, int*, int, int, int, int)",1,"l2_read_throughput","L2 Throughput (Reads)",90.227794GB/s,90.227794GB/s,90.227462GB/s
"GeForce GTX 1080 (0)","dynproc_kernel(int, int*, int*, int*, int, int, int, int)",1,"l2_write_throughput","L2 Throughput (Writes)",8.776531GB/s,8.776531GB/s,8.775853GB/s
"GeForce GTX 1080 (0)","dynproc_kernel(int, int*, int*, int*, int, int, int, int)",1,"sysmem_read_throughput","System Memory Read Throughput",0.000000B/s,0.000000B/s,0.000000B/s
"GeForce GTX 1080 (0)","dynproc_kernel(int, int*, int*, int*, int, int, int, int)",1,"sysmem_write_throughput","System Memory Write Throughput",29.389038MB/s,29.389038MB/s,28.610229MB/s
"GeForce GTX 1080 (0)","dynproc_kernel(int, int*, int*, int*, int, int, int, int)",1,"local_load_throughput","Local Memory Load Throughput",0.000000B/s,0.000000B/s,0.000000B/s
"GeForce GTX 1080 (0)","dynproc_kernel(int, int*, int*, int*, int, int, int, int)",1,"local_store_throughput","Local Memory Store Throughput",0.000000B/s,0.000000B/s,0.000000B/s
"GeForce GTX 1080 (0)","dynproc_kernel(int, int*, int*, int*, int, int, int, int)",1,"shared_load_throughput","Shared Memory Load Throughput",278.552986GB/s,278.552986GB/s,278.552063GB/s
"GeForce GTX 1080 (0)","dynproc_kernel(int, int*, int*, int*, int, int, int, int)",1,"shared_store_throughput","Shared Memory Store Throughput",139.276493GB/s,139.276493GB/s,139.275566GB/s
"GeForce GTX 1080 (0)","dynproc_kernel(int, int*, int*, int*, int, int, int, int)",1,"gld_efficiency","Global Memory Load Efficiency",83.263800%,83.263800%,83.263800%
"GeForce GTX 1080 (0)","dynproc_kernel(int, int*, int*, int*, int, int, int, int)",1,"gst_efficiency","Global Memory Store Efficiency",82.453826%,82.453826%,82.453826%
"GeForce GTX 1080 (0)","dynproc_kernel(int, int*, int*, int*, int, int, int, int)",1,"tex_cache_transactions","Unified Cache Transactions",13460,13460,13460
"GeForce GTX 1080 (0)","dynproc_kernel(int, int*, int*, int*, int, int, int, int)",1,"flop_count_dp","Floating Point Operations(Double Precision)",0,0,0
"GeForce GTX 1080 (0)","dynproc_kernel(int, int*, int*, int*, int, int, int, int)",1,"flop_count_dp_add","Floating Point Operations(Double Precision Add)",0,0,0
"GeForce GTX 1080 (0)","dynproc_kernel(int, int*, int*, int*, int, int, int, int)",1,"flop_count_dp_fma","Floating Point Operations(Double Precision FMA)",0,0,0
"GeForce GTX 1080 (0)","dynproc_kernel(int, int*, int*, int*, int, int, int, int)",1,"flop_count_dp_mul","Floating Point Operations(Double Precision Mul)",0,0,0
"GeForce GTX 1080 (0)","dynproc_kernel(int, int*, int*, int*, int, int, int, int)",1,"flop_count_sp","Floating Point Operations(Single Precision)",0,0,0
"GeForce GTX 1080 (0)","dynproc_kernel(int, int*, int*, int*, int, int, int, int)",1,"flop_count_sp_add","Floating Point Operations(Single Precision Add)",0,0,0
"GeForce GTX 1080 (0)","dynproc_kernel(int, int*, int*, int*, int, int, int, int)",1,"flop_count_sp_fma","Floating Point Operations(Single Precision FMA)",0,0,0
"GeForce GTX 1080 (0)","dynproc_kernel(int, int*, int*, int*, int, int, int, int)",1,"flop_count_sp_mul","Floating Point Operation(Single Precision Mul)",0,0,0
"GeForce GTX 1080 (0)","dynproc_kernel(int, int*, int*, int*, int, int, int, int)",1,"flop_count_sp_special","Floating Point Operations(Single Precision Special)",0,0,0
"GeForce GTX 1080 (0)","dynproc_kernel(int, int*, int*, int*, int, int, int, int)",1,"inst_executed","Instructions Executed",145196,145196,145196
"GeForce GTX 1080 (0)","dynproc_kernel(int, int*, int*, int*, int, int, int, int)",1,"inst_issued","Instructions Issued",147076,147076,147076
"GeForce GTX 1080 (0)","dynproc_kernel(int, int*, int*, int*, int, int, int, int)",1,"sysmem_utilization","System Memory Utilization","Low (1)","Low (1)","Low (1)"
"GeForce GTX 1080 (0)","dynproc_kernel(int, int*, int*, int*, int, int, int, int)",1,"stall_inst_fetch","Issue Stall Reasons (Instructions Fetch)",4.934500%,4.934500%,4.934500%
"GeForce GTX 1080 (0)","dynproc_kernel(int, int*, int*, int*, int, int, int, int)",1,"stall_exec_dependency","Issue Stall Reasons (Execution Dependency)",25.069740%,25.069740%,25.069740%
"GeForce GTX 1080 (0)","dynproc_kernel(int, int*, int*, int*, int, int, int, int)",1,"stall_memory_dependency","Issue Stall Reasons (Data Request)",47.453824%,47.453824%,47.453824%
"GeForce GTX 1080 (0)","dynproc_kernel(int, int*, int*, int*, int, int, int, int)",1,"stall_texture","Issue Stall Reasons (Texture)",0.000000%,0.000000%,0.000000%
"GeForce GTX 1080 (0)","dynproc_kernel(int, int*, int*, int*, int, int, int, int)",1,"stall_sync","Issue Stall Reasons (Synchronization)",9.728645%,9.728645%,9.728645%
"GeForce GTX 1080 (0)","dynproc_kernel(int, int*, int*, int*, int, int, int, int)",1,"stall_other","Issue Stall Reasons (Other)",3.591285%,3.591285%,3.591285%
"GeForce GTX 1080 (0)","dynproc_kernel(int, int*, int*, int*, int, int, int, int)",1,"stall_constant_memory_dependency","Issue Stall Reasons (Immediate constant)",7.881753%,7.881753%,7.881753%
"GeForce GTX 1080 (0)","dynproc_kernel(int, int*, int*, int*, int, int, int, int)",1,"stall_pipe_busy","Issue Stall Reasons (Pipe Busy)",0.465853%,0.465853%,0.465853%
"GeForce GTX 1080 (0)","dynproc_kernel(int, int*, int*, int*, int, int, int, int)",1,"shared_efficiency","Shared Memory Efficiency",95.975519%,95.975519%,95.975519%
"GeForce GTX 1080 (0)","dynproc_kernel(int, int*, int*, int*, int, int, int, int)",1,"inst_fp_32","FP Instructions(Single)",0,0,0
"GeForce GTX 1080 (0)","dynproc_kernel(int, int*, int*, int*, int, int, int, int)",1,"inst_fp_64","FP Instructions(Double)",0,0,0
"GeForce GTX 1080 (0)","dynproc_kernel(int, int*, int*, int*, int, int, int, int)",1,"inst_integer","Integer Instructions",2388220,2388220,2388220
"GeForce GTX 1080 (0)","dynproc_kernel(int, int*, int*, int*, int, int, int, int)",1,"inst_bit_convert","Bit-Convert Instructions",0,0,0
"GeForce GTX 1080 (0)","dynproc_kernel(int, int*, int*, int*, int, int, int, int)",1,"inst_control","Control-Flow Instructions",338172,338172,338172
"GeForce GTX 1080 (0)","dynproc_kernel(int, int*, int*, int*, int, int, int, int)",1,"inst_compute_ld_st","Load/Store Instructions",672680,672680,672680
"GeForce GTX 1080 (0)","dynproc_kernel(int, int*, int*, int*, int, int, int, int)",1,"inst_misc","Misc Instructions",920000,920000,920000
"GeForce GTX 1080 (0)","dynproc_kernel(int, int*, int*, int*, int, int, int, int)",1,"inst_inter_thread_communication","Inter-Thread Instructions",0,0,0
"GeForce GTX 1080 (0)","dynproc_kernel(int, int*, int*, int*, int, int, int, int)",1,"issue_slots","Issue Slots",125583,125583,125583
"GeForce GTX 1080 (0)","dynproc_kernel(int, int*, int*, int*, int, int, int, int)",1,"cf_issued","Issued Control-Flow Instructions",17658,17658,17658
"GeForce GTX 1080 (0)","dynproc_kernel(int, int*, int*, int*, int, int, int, int)",1,"cf_executed","Executed Control-Flow Instructions",17658,17658,17658
"GeForce GTX 1080 (0)","dynproc_kernel(int, int*, int*, int*, int, int, int, int)",1,"ldst_issued","Issued Load/Store Instructions",41187,41187,41187
"GeForce GTX 1080 (0)","dynproc_kernel(int, int*, int*, int*, int, int, int, int)",1,"ldst_executed","Executed Load/Store Instructions",30088,30088,30088
"GeForce GTX 1080 (0)","dynproc_kernel(int, int*, int*, int*, int, int, int, int)",1,"atomic_transactions","Atomic Transactions",0,0,0
"GeForce GTX 1080 (0)","dynproc_kernel(int, int*, int*, int*, int, int, int, int)",1,"atomic_transactions_per_request","Atomic Transactions Per Request",0.000000,0.000000,0.000000
"GeForce GTX 1080 (0)","dynproc_kernel(int, int*, int*, int*, int, int, int, int)",1,"l2_atomic_throughput","L2 Throughput (Atomic requests)",0.000000B/s,0.000000B/s,0.000000B/s
"GeForce GTX 1080 (0)","dynproc_kernel(int, int*, int*, int*, int, int, int, int)",1,"l2_atomic_transactions","L2 Transactions (Atomic requests)",0,0,0
"GeForce GTX 1080 (0)","dynproc_kernel(int, int*, int*, int*, int, int, int, int)",1,"l2_tex_read_transactions","L2 Transactions (Texture Reads)",15580,15580,15580
"GeForce GTX 1080 (0)","dynproc_kernel(int, int*, int*, int*, int, int, int, int)",1,"stall_memory_throttle","Issue Stall Reasons (Memory Throttle)",0.257996%,0.257996%,0.257996%
"GeForce GTX 1080 (0)","dynproc_kernel(int, int*, int*, int*, int, int, int, int)",1,"stall_not_selected","Issue Stall Reasons (Not Selected)",0.616404%,0.616404%,0.616404%
"GeForce GTX 1080 (0)","dynproc_kernel(int, int*, int*, int*, int, int, int, int)",1,"l2_tex_write_transactions","L2 Transactions (Texture Writes)",1516,1516,1516
"GeForce GTX 1080 (0)","dynproc_kernel(int, int*, int*, int*, int, int, int, int)",1,"flop_count_hp","Floating Point Operations(Half Precision)",0,0,0
"GeForce GTX 1080 (0)","dynproc_kernel(int, int*, int*, int*, int, int, int, int)",1,"flop_count_hp_add","Floating Point Operations(Half Precision Add)",0,0,0
"GeForce GTX 1080 (0)","dynproc_kernel(int, int*, int*, int*, int, int, int, int)",1,"flop_count_hp_mul","Floating Point Operation(Half Precision Mul)",0,0,0
"GeForce GTX 1080 (0)","dynproc_kernel(int, int*, int*, int*, int, int, int, int)",1,"flop_count_hp_fma","Floating Point Operations(Half Precision FMA)",0,0,0
"GeForce GTX 1080 (0)","dynproc_kernel(int, int*, int*, int*, int, int, int, int)",1,"inst_fp_16","HP Instructions(Half)",0,0,0
"GeForce GTX 1080 (0)","dynproc_kernel(int, int*, int*, int*, int, int, int, int)",1,"sysmem_read_utilization","System Memory Read Utilization","Idle (0)","Idle (0)","Idle (0)"
"GeForce GTX 1080 (0)","dynproc_kernel(int, int*, int*, int*, int, int, int, int)",1,"sysmem_write_utilization","System Memory Write Utilization","Low (1)","Low (1)","Low (1)"
"GeForce GTX 1080 (0)","dynproc_kernel(int, int*, int*, int*, int, int, int, int)",1,"sm_activity","Multiprocessor Activity",67.555068%,67.555068%,67.555068%
"GeForce GTX 1080 (0)","dynproc_kernel(int, int*, int*, int*, int, int, int, int)",1,"achieved_occupancy","Achieved Occupancy",0.276612,0.276612,0.276612
"GeForce GTX 1080 (0)","dynproc_kernel(int, int*, int*, int*, int, int, int, int)",1,"executed_ipc","Executed IPC",0.816006,0.816006,0.816006
"GeForce GTX 1080 (0)","dynproc_kernel(int, int*, int*, int*, int, int, int, int)",1,"issued_ipc","Issued IPC",0.811369,0.811369,0.811369
"GeForce GTX 1080 (0)","dynproc_kernel(int, int*, int*, int*, int, int, int, int)",1,"issue_slot_utilization","Issue Slot Utilization",17.319977%,17.319977%,17.319977%
"GeForce GTX 1080 (0)","dynproc_kernel(int, int*, int*, int*, int, int, int, int)",1,"eligible_warps_per_cycle","Eligible Warps Per Active Cycle",0.793853,0.793853,0.793853
"GeForce GTX 1080 (0)","dynproc_kernel(int, int*, int*, int*, int, int, int, int)",1,"tex_utilization","Unified Cache Utilization","Low (1)","Low (1)","Low (1)"
"GeForce GTX 1080 (0)","dynproc_kernel(int, int*, int*, int*, int, int, int, int)",1,"l2_utilization","L2 Cache Utilization","Low (1)","Low (1)","Low (1)"
"GeForce GTX 1080 (0)","dynproc_kernel(int, int*, int*, int*, int, int, int, int)",1,"shared_utilization","Shared Memory Utilization","Low (1)","Low (1)","Low (1)"
"GeForce GTX 1080 (0)","dynproc_kernel(int, int*, int*, int*, int, int, int, int)",1,"ldst_fu_utilization","Load/Store Function Unit Utilization","Low (1)","Low (1)","Low (1)"
"GeForce GTX 1080 (0)","dynproc_kernel(int, int*, int*, int*, int, int, int, int)",1,"cf_fu_utilization","Control-Flow Function Unit Utilization","Low (1)","Low (1)","Low (1)"
"GeForce GTX 1080 (0)","dynproc_kernel(int, int*, int*, int*, int, int, int, int)",1,"special_fu_utilization","Special Function Unit Utilization","Idle (0)","Idle (0)","Idle (0)"
"GeForce GTX 1080 (0)","dynproc_kernel(int, int*, int*, int*, int, int, int, int)",1,"tex_fu_utilization","Texture Function Unit Utilization","Low (1)","Low (1)","Low (1)"
"GeForce GTX 1080 (0)","dynproc_kernel(int, int*, int*, int*, int, int, int, int)",1,"single_precision_fu_utilization","Single-Precision Function Unit Utilization","Low (2)","Low (2)","Low (2)"
"GeForce GTX 1080 (0)","dynproc_kernel(int, int*, int*, int*, int, int, int, int)",1,"double_precision_fu_utilization","Double-Precision Function Unit Utilization","Idle (0)","Idle (0)","Idle (0)"
"GeForce GTX 1080 (0)","dynproc_kernel(int, int*, int*, int*, int, int, int, int)",1,"flop_hp_efficiency","FLOP Efficiency(Peak Half)",0.000000%,0.000000%,0.000000%
"GeForce GTX 1080 (0)","dynproc_kernel(int, int*, int*, int*, int, int, int, int)",1,"flop_sp_efficiency","FLOP Efficiency(Peak Single)",0.000000%,0.000000%,0.000000%
"GeForce GTX 1080 (0)","dynproc_kernel(int, int*, int*, int*, int, int, int, int)",1,"flop_dp_efficiency","FLOP Efficiency(Peak Double)",0.000000%,0.000000%,0.000000%
"GeForce GTX 1080 (0)","dynproc_kernel(int, int*, int*, int*, int, int, int, int)",1,"dram_read_transactions","Device Memory Read Transactions",12583,12583,12583
"GeForce GTX 1080 (0)","dynproc_kernel(int, int*, int*, int*, int, int, int, int)",1,"dram_write_transactions","Device Memory Write Transactions",0,0,0
"GeForce GTX 1080 (0)","dynproc_kernel(int, int*, int*, int*, int, int, int, int)",1,"dram_read_throughput","Device Memory Read Throughput",72.227007GB/s,72.227007GB/s,72.226860GB/s
"GeForce GTX 1080 (0)","dynproc_kernel(int, int*, int*, int*, int, int, int, int)",1,"dram_write_throughput","Device Memory Write Throughput",0.000000B/s,0.000000B/s,0.000000B/s
"GeForce GTX 1080 (0)","dynproc_kernel(int, int*, int*, int*, int, int, int, int)",1,"dram_utilization","Device Memory Utilization","Low (3)","Low (3)","Low (3)"
"GeForce GTX 1080 (0)","dynproc_kernel(int, int*, int*, int*, int, int, int, int)",1,"half_precision_fu_utilization","Half-Precision Function Unit Utilization","Idle (0)","Idle (0)","Idle (0)"
"GeForce GTX 1080 (0)","dynproc_kernel(int, int*, int*, int*, int, int, int, int)",1,"ecc_transactions","ECC Transactions",0,0,0
"GeForce GTX 1080 (0)","dynproc_kernel(int, int*, int*, int*, int, int, int, int)",1,"ecc_throughput","ECC Throughput",0.000000B/s,0.000000B/s,0.000000B/s
